%YAML 1.1
%TAG !u! tag:unity3d.com,2011:
--- !u!114 &11400000
MonoBehaviour:
  m_ObjectHideFlags: 0
  m_CorrespondingSourceObject: {fileID: 0}
  m_PrefabInstance: {fileID: 0}
  m_PrefabAsset: {fileID: 0}
  m_GameObject: {fileID: 0}
  m_Enabled: 1
  m_EditorHideFlags: 0
  m_Script: {fileID: 11500000, guid: 85b3f0eaa5f988b4a917ada473f82f81, type: 3}
  m_Name: leve_11
  m_EditorClassIdentifier: 
  fieldSize: 22
  cellDatas:
  - x: 0
    y: 0
    cellType: 4
    aboveCellDataToSave:
      cellIndex: {x: 0, y: 0}
      aboveCellParams: []
  - x: 0
    y: 1
    cellType: 0
    aboveCellDataToSave:
      cellIndex: {x: 0, y: 1}
      aboveCellParams: []
  - x: 1
    y: 0
    cellType: 1
    aboveCellDataToSave:
      cellIndex: {x: 1, y: 0}
      aboveCellParams: []
  - x: 1
    y: 2
    cellType: 11
    aboveCellDataToSave:
      cellIndex: {x: 1, y: 2}
      aboveCellParams:
      - key: directionX
        value: 0
      - key: directionY
        value: 1
  - x: 1
    y: 3
    cellType: 11
    aboveCellDataToSave:
      cellIndex: {x: 1, y: 3}
      aboveCellParams:
      - key: directionX
        value: 0
      - key: directionY
        value: 1
  - x: 1
    y: 4
    cellType: 11
    aboveCellDataToSave:
      cellIndex: {x: 1, y: 4}
      aboveCellParams:
      - key: directionX
        value: 0
      - key: directionY
        value: 1
  - x: 1
    y: 5
    cellType: 1
    aboveCellDataToSave:
      cellIndex: {x: 1, y: 5}
      aboveCellParams: []
  - x: 1
    y: 6
    cellType: 2
    aboveCellDataToSave:
      cellIndex: {x: 1, y: 6}
      aboveCellParams:
      - key: startDelay
        value: 0
      - key: frequency
        value: 1
  - x: 1
    y: 7
    cellType: 1
    aboveCellDataToSave:
      cellIndex: {x: 1, y: 7}
      aboveCellParams: []
  - x: 1
    y: 8
    cellType: 2
    aboveCellDataToSave:
      cellIndex: {x: 1, y: 8}
      aboveCellParams:
      - key: startDelay
        value: 0
      - key: frequency
        value: 1
  - x: 1
    y: 9
    cellType: 1
    aboveCellDataToSave:
      cellIndex: {x: 1, y: 9}
      aboveCellParams: []
  - x: 1
    y: 10
    cellType: 7
    aboveCellDataToSave:
      cellIndex: {x: 1, y: 10}
      aboveCellParams:
      - key: otherCellX
        value: 7
      - key: otherCellY
        value: 0
  - x: 2
    y: 0
    cellType: 1
    aboveCellDataToSave:
      cellIndex: {x: 2, y: 0}
      aboveCellParams: []
  - x: 2
    y: 1
    cellType: 7
    aboveCellDataToSave:
      cellIndex: {x: 2, y: 1}
      aboveCellParams:
      - key: otherCellX
        value: 3
      - key: otherCellY
        value: 4
  - x: 2
    y: 2
    cellType: 9
    aboveCellDataToSave:
      cellIndex: {x: 2, y: 2}
      aboveCellParams:
      - key: directionX
        value: -1
      - key: directionY
        value: 0
  - x: 3
    y: 2
    cellType: 9
    aboveCellDataToSave:
      cellIndex: {x: 3, y: 2}
      aboveCellParams:
      - key: directionX
        value: -1
      - key: directionY
        value: 0
  - x: 3
    y: 4
    cellType: 7
    aboveCellDataToSave:
      cellIndex: {x: 3, y: 4}
      aboveCellParams:
      - key: otherCellX
        value: 3
      - key: otherCellY
        value: 4
  - x: 3
    y: 5
    cellType: 1
    aboveCellDataToSave:
      cellIndex: {x: 3, y: 5}
      aboveCellParams: []
  - x: 4
    y: 2
    cellType: 9
    aboveCellDataToSave:
      cellIndex: {x: 4, y: 2}
      aboveCellParams:
      - key: directionX
        value: -1
      - key: directionY
        value: 0
  - x: 4
    y: 3
    cellType: 5
    aboveCellDataToSave:
      cellIndex: {x: 4, y: 3}
      aboveCellParams:
      - key: speed
        value: 1
      - key: path
        value: 4,3;4,4;4,5;4,6;4,7
  - x: 4
    y: 4
    cellType: 6
    aboveCellDataToSave:
      cellIndex: {x: 4, y: 4}
      aboveCellParams:
      - key: timeDestroyed
        value: 1
  - x: 4
    y: 5
    cellType: 6
    aboveCellDataToSave:
      cellIndex: {x: 4, y: 5}
      aboveCellParams:
      - key: timeDestroyed
        value: 1
  - x: 4
    y: 6
    cellType: 2
    aboveCellDataToSave:
      cellIndex: {x: 4, y: 6}
      aboveCellParams:
      - key: startDelay
        value: 0
      - key: frequency
        value: 1
  - x: 4
    y: 7
    cellType: 1
    aboveCellDataToSave:
      cellIndex: {x: 4, y: 7}
      aboveCellParams: []
  - x: 5
    y: 2
    cellType: 9
    aboveCellDataToSave:
      cellIndex: {x: 5, y: 2}
      aboveCellParams:
      - key: directionX
        value: -1
      - key: directionY
        value: 0
  - x: 5
    y: 7
    cellType: 1
    aboveCellDataToSave:
      cellIndex: {x: 5, y: 7}
      aboveCellParams: []
  - x: 6
    y: 1
    cellType: 5
    aboveCellDataToSave:
      cellIndex: {x: 6, y: 1}
      aboveCellParams:
      - key: speed
        value: 1
      - key: path
        value: 6,1;7,1;8,1;9,1;10,1;11,0
  - x: 6
    y: 2
    cellType: 9
    aboveCellDataToSave:
      cellIndex: {x: 6, y: 2}
      aboveCellParams:
      - key: directionX
        value: -1
      - key: directionY
        value: 0
  - x: 6
    y: 3
    cellType: 10
    aboveCellDataToSave:
      cellIndex: {x: 6, y: 3}
      aboveCellParams:
      - key: directionX
        value: 0
      - key: directionY
        value: -1
  - x: 6
    y: 4
    cellType: 10
    aboveCellDataToSave:
      cellIndex: {x: 6, y: 4}
      aboveCellParams:
      - key: directionX
        value: 0
      - key: directionY
        value: -1
  - x: 6
    y: 5
    cellType: 10
    aboveCellDataToSave:
      cellIndex: {x: 6, y: 5}
      aboveCellParams:
      - key: directionX
        value: 0
      - key: directionY
        value: -1
  - x: 6
    y: 6
    cellType: 10
    aboveCellDataToSave:
      cellIndex: {x: 6, y: 6}
      aboveCellParams:
      - key: directionX
        value: 0
      - key: directionY
        value: -1
  - x: 6
    y: 7
    cellType: 10
    aboveCellDataToSave:
      cellIndex: {x: 6, y: 7}
      aboveCellParams:
      - key: directionX
        value: 0
      - key: directionY
        value: -1
  - x: 7
    y: 0
    cellType: 7
    aboveCellDataToSave:
      cellIndex: {x: 7, y: 0}
      aboveCellParams:
      - key: otherCellX
        value: 7
      - key: otherCellY
        value: 0
  - x: 7
    y: 7
    cellType: 9
    aboveCellDataToSave:
      cellIndex: {x: 7, y: 7}
      aboveCellParams:
      - key: directionX
        value: -1
      - key: directionY
        value: 0
  - x: 8
    y: 0
    cellType: 1
    aboveCellDataToSave:
      cellIndex: {x: 8, y: 0}
      aboveCellParams: []
  - x: 8
    y: 4
    cellType: 6
    aboveCellDataToSave:
      cellIndex: {x: 8, y: 4}
      aboveCellParams:
      - key: timeDestroyed
        value: 1
  - x: 8
    y: 5
    cellType: 11
    aboveCellDataToSave:
      cellIndex: {x: 8, y: 5}
      aboveCellParams:
      - key: directionX
        value: 0
      - key: directionY
        value: 1
  - x: 8
    y: 6
    cellType: 1
    aboveCellDataToSave:
      cellIndex: {x: 8, y: 6}
      aboveCellParams: []
  - x: 8
    y: 7
    cellType: 9
    aboveCellDataToSave:
      cellIndex: {x: 8, y: 7}
      aboveCellParams:
      - key: directionX
        value: -1
      - key: directionY
        value: 0
  - x: 9
    y: 0
    cellType: 1
    aboveCellDataToSave:
      cellIndex: {x: 9, y: 0}
      aboveCellParams: []
  - x: 9
    y: 4
    cellType: 9
    aboveCellDataToSave:
      cellIndex: {x: 9, y: 4}
      aboveCellParams:
      - key: directionX
        value: -1
      - key: directionY
        value: 0
  - x: 9
    y: 6
    cellType: 2
    aboveCellDataToSave:
      cellIndex: {x: 9, y: 6}
      aboveCellParams:
      - key: startDelay
        value: 1
      - key: frequency
        value: 1
  - x: 9
    y: 7
    cellType: 1
    aboveCellDataToSave:
      cellIndex: {x: 9, y: 7}
      aboveCellParams: []
  - x: 10
    y: 0
    cellType: 2
    aboveCellDataToSave:
      cellIndex: {x: 10, y: 0}
      aboveCellParams:
      - key: startDelay
        value: 0
      - key: frequency
        value: 1
  - x: 10
    y: 4
    cellType: 9
    aboveCellDataToSave:
      cellIndex: {x: 10, y: 4}
      aboveCellParams:
      - key: directionX
        value: -1
      - key: directionY
        value: 0
  - x: 11
    y: 0
    cellType: 1
    aboveCellDataToSave:
      cellIndex: {x: 11, y: 0}
      aboveCellParams: []
  - x: 11
    y: 1
    cellType: 11
    aboveCellDataToSave:
      cellIndex: {x: 11, y: 1}
      aboveCellParams:
      - key: directionX
        value: 0
      - key: directionY
        value: 1
  - x: 11
    y: 2
    cellType: 11
    aboveCellDataToSave:
      cellIndex: {x: 11, y: 2}
      aboveCellParams:
      - key: directionX
        value: 0
      - key: directionY
        value: 1
  - x: 11
    y: 3
    cellType: 6
    aboveCellDataToSave:
      cellIndex: {x: 11, y: 3}
      aboveCellParams:
      - key: timeDestroyed
        value: 1
  - x: 11
    y: 4
    cellType: 9
    aboveCellDataToSave:
      cellIndex: {x: 11, y: 4}
      aboveCellParams:
      - key: directionX
        value: -1
      - key: directionY
        value: 0
  - x: 12
    y: 0
    cellType: 2
    aboveCellDataToSave:
      cellIndex: {x: 12, y: 0}
      aboveCellParams:
      - key: startDelay
        value: 0
      - key: frequency
        value: 1
  - x: 13
    y: 0
    cellType: 1
    aboveCellDataToSave:
      cellIndex: {x: 13, y: 0}
      aboveCellParams: []
  - x: 7
    y: 9
    cellType: 5
    aboveCellDataToSave:
      cellIndex: {x: 7, y: 9}
      aboveCellParams:
      - key: speed
        value: 1
      - key: path
        value: 7,9;8,9;9,9;10,8;11,7;11,6;11,5
  - x: 9
    y: 8
    cellType: 2
    aboveCellDataToSave:
      cellIndex: {x: 9, y: 8}
      aboveCellParams:
      - key: startDelay
        value: 0
      - key: frequency
        value: 1
  - x: 10
    y: 7
    cellType: 2
    aboveCellDataToSave:
      cellIndex: {x: 10, y: 7}
      aboveCellParams:
      - key: startDelay
        value: 1
      - key: frequency
        value: 1
  - x: 9
    y: 9
    cellType: 0
    aboveCellDataToSave:
      cellIndex: {x: 9, y: 9}
      aboveCellParams: []
  - x: 10
    y: 8
    cellType: 1
    aboveCellDataToSave:
      cellIndex: {x: 10, y: 8}
      aboveCellParams: []
  - x: 11
    y: 8
    cellType: 1
    aboveCellDataToSave:
      cellIndex: {x: 11, y: 8}
      aboveCellParams: []
  - x: 12
    y: 8
    cellType: 7
    aboveCellDataToSave:
      cellIndex: {x: 12, y: 8}
      aboveCellParams:
      - key: otherCellX
        value: 0
      - key: otherCellY
        value: 2
  - x: 0
    y: 2
    cellType: 7
    aboveCellDataToSave:
      cellIndex: {x: 0, y: 2}
      aboveCellParams:
      - key: otherCellX
        value: 0
      - key: otherCellY
        value: 2
  - x: 0
    y: 3
    cellType: 6
    aboveCellDataToSave:
      cellIndex: {x: 0, y: 3}
      aboveCellParams:
      - key: timeDestroyed
        value: 1
  - x: 0
    y: 4
    cellType: 6
    aboveCellDataToSave:
      cellIndex: {x: 0, y: 4}
      aboveCellParams:
      - key: timeDestroyed
        value: 1
  - x: 0
    y: 5
    cellType: 6
    aboveCellDataToSave:
      cellIndex: {x: 0, y: 5}
      aboveCellParams:
      - key: timeDestroyed
        value: 1
  - x: 0
    y: 6
    cellType: 7
    aboveCellDataToSave:
      cellIndex: {x: 0, y: 6}
      aboveCellParams:
      - key: otherCellX
        value: 4
      - key: otherCellY
        value: 9
  - x: 4
    y: 9
    cellType: 7
    aboveCellDataToSave:
      cellIndex: {x: 4, y: 9}
      aboveCellParams:
      - key: otherCellX
        value: 4
      - key: otherCellY
        value: 9
  - x: 3
    y: 9
    cellType: 5
    aboveCellDataToSave:
      cellIndex: {x: 3, y: 9}
      aboveCellParams:
      - key: speed
        value: 1
      - key: path
        value: 3,9;3,10;4,10;4,11;4,12;4,13
  - x: 4
    y: 14
    cellType: 1
    aboveCellDataToSave:
      cellIndex: {x: 4, y: 14}
      aboveCellParams: []
  - x: 4
    y: 10
    cellType: 6
    aboveCellDataToSave:
      cellIndex: {x: 4, y: 10}
      aboveCellParams:
      - key: timeDestroyed
        value: 1
  - x: 4
    y: 11
    cellType: 6
    aboveCellDataToSave:
      cellIndex: {x: 4, y: 11}
      aboveCellParams:
      - key: timeDestroyed
        value: 1
  - x: 4
    y: 12
    cellType: 6
    aboveCellDataToSave:
      cellIndex: {x: 4, y: 12}
      aboveCellParams:
      - key: timeDestroyed
        value: 1
  - x: 4
    y: 13
    cellType: 6
    aboveCellDataToSave:
      cellIndex: {x: 4, y: 13}
      aboveCellParams:
      - key: timeDestroyed
        value: 1
  - x: 5
    y: 9
    cellType: 1
    aboveCellDataToSave:
      cellIndex: {x: 5, y: 9}
      aboveCellParams: []
  - x: 6
    y: 9
    cellType: 10
    aboveCellDataToSave:
      cellIndex: {x: 6, y: 9}
      aboveCellParams:
      - key: directionX
        value: 0
      - key: directionY
        value: -1
  - x: 6
    y: 8
    cellType: 10
    aboveCellDataToSave:
      cellIndex: {x: 6, y: 8}
      aboveCellParams:
      - key: directionX
        value: 0
      - key: directionY
        value: -1
  - x: 4
    y: 15
    cellType: 3
    aboveCellDataToSave:
      cellIndex: {x: 4, y: 15}
      aboveCellParams: []
  - x: 14
    y: 0
    cellType: 2
    aboveCellDataToSave:
      cellIndex: {x: 14, y: 0}
      aboveCellParams:
      - key: startDelay
        value: 0
      - key: frequency
        value: 1
  - x: 15
    y: 0
    cellType: 1
    aboveCellDataToSave:
      cellIndex: {x: 15, y: 0}
      aboveCellParams: []
  - x: 16
    y: 0
    cellType: 7
    aboveCellDataToSave:
      cellIndex: {x: 16, y: 0}
      aboveCellParams:
      - key: otherCellX
        value: 1
      - key: otherCellY
        value: 12
  - x: 1
    y: 12
    cellType: 7
    aboveCellDataToSave:
      cellIndex: {x: 1, y: 12}
      aboveCellParams:
      - key: otherCellX
        value: 1
      - key: otherCellY
        value: 12
  - x: 0
    y: 13
    cellType: 5
    aboveCellDataToSave:
      cellIndex: {x: 0, y: 13}
      aboveCellParams:
      - key: speed
        value: 1
      - key: path
        value: 0,13;0,14;0,15;0,16;0,17;1,17
  - x: 2
    y: 11
    cellType: 5
    aboveCellDataToSave:
      cellIndex: {x: 2, y: 11}
      aboveCellParams:
      - key: speed
        value: 1
      - key: path
        value: 2,11;2,12;2,13;2,14;2,15;2,16;2,17;1,18
  - x: 1
    y: 13
    cellType: 1
    aboveCellDataToSave:
      cellIndex: {x: 1, y: 13}
      aboveCellParams: []
  - x: 1
    y: 14
    cellType: 2
    aboveCellDataToSave:
      cellIndex: {x: 1, y: 14}
      aboveCellParams:
      - key: startDelay
        value: 0
      - key: frequency
        value: 1
  - x: 1
    y: 15
    cellType: 11
    aboveCellDataToSave:
      cellIndex: {x: 1, y: 15}
      aboveCellParams:
      - key: directionX
        value: 0
      - key: directionY
        value: 1
  - x: 1
    y: 16
    cellType: 1
    aboveCellDataToSave:
      cellIndex: {x: 1, y: 16}
      aboveCellParams: []
  - x: 1
    y: 17
    cellType: 6
    aboveCellDataToSave:
      cellIndex: {x: 1, y: 17}
      aboveCellParams:
      - key: timeDestroyed
        value: 1
  - x: 1
    y: 18
    cellType: 2
    aboveCellDataToSave:
      cellIndex: {x: 1, y: 18}
      aboveCellParams:
      - key: startDelay
        value: 0
      - key: frequency
        value: 1
  - x: 1
    y: 19
    cellType: 7
    aboveCellDataToSave:
      cellIndex: {x: 1, y: 19}
      aboveCellParams:
      - key: otherCellX
        value: 13
      - key: otherCellY
        value: 3
  - x: 13
    y: 3
    cellType: 7
    aboveCellDataToSave:
      cellIndex: {x: 13, y: 3}
      aboveCellParams:
      - key: otherCellX
        value: 13
      - key: otherCellY
        value: 3
  - x: 13
    y: 4
    cellType: 11
    aboveCellDataToSave:
      cellIndex: {x: 13, y: 4}
      aboveCellParams:
      - key: directionX
        value: 0
      - key: directionY
        value: 1
  - x: 13
    y: 5
    cellType: 2
    aboveCellDataToSave:
      cellIndex: {x: 13, y: 5}
      aboveCellParams:
      - key: startDelay
        value: 1
      - key: frequency
        value: 1
  - x: 12
    y: 6
    cellType: 2
    aboveCellDataToSave:
      cellIndex: {x: 12, y: 6}
      aboveCellParams:
      - key: startDelay
        value: 0
      - key: frequency
        value: 1
  - x: 13
    y: 6
    cellType: 2
    aboveCellDataToSave:
      cellIndex: {x: 13, y: 6}
      aboveCellParams:
      - key: startDelay
        value: 1,5
      - key: frequency
        value: 1
  - x: 12
    y: 7
    cellType: 0
    aboveCellDataToSave:
      cellIndex: {x: 12, y: 7}
      aboveCellParams: []
  - x: 14
    y: 3
    cellType: 12
    aboveCellDataToSave:
      cellIndex: {x: 14, y: 3}
      aboveCellParams:
      - key: directionX
        value: 1
      - key: directionY
        value: 0
  - x: 15
    y: 3
    cellType: 6
    aboveCellDataToSave:
      cellIndex: {x: 15, y: 3}
      aboveCellParams:
      - key: timeDestroyed
        value: 1
  - x: 16
    y: 2
    cellType: 0
    aboveCellDataToSave:
      cellIndex: {x: 16, y: 2}
      aboveCellParams: []
  - x: 16
    y: 3
    cellType: 6
    aboveCellDataToSave:
      cellIndex: {x: 16, y: 3}
      aboveCellParams:
      - key: timeDestroyed
        value: 1
  - x: 17
    y: 2
    cellType: 0
    aboveCellDataToSave:
      cellIndex: {x: 17, y: 2}
      aboveCellParams: []
  - x: 18
    y: 2
    cellType: 0
    aboveCellDataToSave:
      cellIndex: {x: 18, y: 2}
      aboveCellParams: []
  - x: 6
    y: 11
    cellType: 7
    aboveCellDataToSave:
      cellIndex: {x: 6, y: 11}
      aboveCellParams:
      - key: otherCellX
        value: 6
      - key: otherCellY
        value: 11
  - x: 6
    y: 12
    cellType: 1
    aboveCellDataToSave:
      cellIndex: {x: 6, y: 12}
      aboveCellParams: []
  - x: 6
    y: 13
    cellType: 2
    aboveCellDataToSave:
      cellIndex: {x: 6, y: 13}
      aboveCellParams:
      - key: startDelay
        value: 0
      - key: frequency
        value: 2
  - x: 7
    y: 12
    cellType: 2
    aboveCellDataToSave:
      cellIndex: {x: 7, y: 12}
      aboveCellParams:
      - key: startDelay
        value: 1
      - key: frequency
        value: 2
  - x: 7
    y: 13
    cellType: 2
    aboveCellDataToSave:
      cellIndex: {x: 7, y: 13}
      aboveCellParams:
      - key: startDelay
        value: 0
      - key: frequency
        value: 2
  - x: 6
    y: 14
    cellType: 2
    aboveCellDataToSave:
      cellIndex: {x: 6, y: 14}
      aboveCellParams:
      - key: startDelay
        value: 1
      - key: frequency
        value: 2
  - x: 6
    y: 15
    cellType: 9
    aboveCellDataToSave:
      cellIndex: {x: 6, y: 15}
      aboveCellParams:
      - key: directionX
        value: -1
      - key: directionY
        value: 0
  - x: 5
    y: 15
    cellType: 9
    aboveCellDataToSave:
      cellIndex: {x: 5, y: 15}
      aboveCellParams:
      - key: directionX
        value: -1
      - key: directionY
        value: 0
  - x: 17
    y: 3
    cellType: 7
    aboveCellDataToSave:
      cellIndex: {x: 17, y: 3}
      aboveCellParams:
      - key: otherCellX
        value: 6
      - key: otherCellY
        value: 11
  cellFloorDatas: []
