%YAML 1.1
%TAG !u! tag:unity3d.com,2011:
--- !u!114 &11400000
MonoBehaviour:
  m_ObjectHideFlags: 0
  m_CorrespondingSourceObject: {fileID: 0}
  m_PrefabInstance: {fileID: 0}
  m_PrefabAsset: {fileID: 0}
  m_GameObject: {fileID: 0}
  m_Enabled: 1
  m_EditorHideFlags: 0
  m_Script: {fileID: 11500000, guid: 85b3f0eaa5f988b4a917ada473f82f81, type: 3}
  m_Name: leve_14
  m_EditorClassIdentifier: 
  fieldSize: 14
  cellDatas:
  - x: 0
    y: 0
    cellType: 4
    aboveCellDataToSave:
      cellIndex: {x: 0, y: 0}
      aboveCellParams: []
  - x: 0
    y: 2
    cellType: 14
    aboveCellDataToSave:
      cellIndex: {x: 0, y: 2}
      aboveCellParams:
      - key: directionX
        value: 1
      - key: directionY
        value: 0
      - key: delayShoot
        value: 1
      - key: speedShoot
        value: 5
      - key: shootRange
        value: 10
  - x: 1
    y: 0
    cellType: 1
    aboveCellDataToSave:
      cellIndex: {x: 1, y: 0}
      aboveCellParams: []
  - x: 1
    y: 1
    cellType: 1
    aboveCellDataToSave:
      cellIndex: {x: 1, y: 1}
      aboveCellParams: []
  - x: 2
    y: 0
    cellType: 1
    aboveCellDataToSave:
      cellIndex: {x: 2, y: 0}
      aboveCellParams: []
  - x: 2
    y: 1
    cellType: 1
    aboveCellDataToSave:
      cellIndex: {x: 2, y: 1}
      aboveCellParams: []
  - x: 2
    y: 2
    cellType: 1
    aboveCellDataToSave:
      cellIndex: {x: 2, y: 2}
      aboveCellParams: []
  - x: 2
    y: 3
    cellType: 1
    aboveCellDataToSave:
      cellIndex: {x: 2, y: 3}
      aboveCellParams: []
  - x: 2
    y: 4
    cellType: 1
    aboveCellDataToSave:
      cellIndex: {x: 2, y: 4}
      aboveCellParams: []
  - x: 2
    y: 5
    cellType: 6
    aboveCellDataToSave:
      cellIndex: {x: 2, y: 5}
      aboveCellParams:
      - key: timeDestroyed
        value: 1
  - x: 2
    y: 6
    cellType: 2
    aboveCellDataToSave:
      cellIndex: {x: 2, y: 6}
      aboveCellParams:
      - key: startDelay
        value: 0
      - key: frequency
        value: 1
  - x: 4
    y: 4
    cellType: 14
    aboveCellDataToSave:
      cellIndex: {x: 4, y: 4}
      aboveCellParams:
      - key: directionX
        value: -1
      - key: directionY
        value: 0
      - key: delayShoot
        value: 1
      - key: speedShoot
        value: 5
      - key: shootRange
        value: 10
  - x: 3
    y: 0
    cellType: 2
    aboveCellDataToSave:
      cellIndex: {x: 3, y: 0}
      aboveCellParams:
      - key: startDelay
        value: 0
      - key: frequency
        value: 1
  - x: 4
    y: 0
    cellType: 2
    aboveCellDataToSave:
      cellIndex: {x: 4, y: 0}
      aboveCellParams:
      - key: startDelay
        value: 1
      - key: frequency
        value: 1
  - x: 5
    y: 0
    cellType: 1
    aboveCellDataToSave:
      cellIndex: {x: 5, y: 0}
      aboveCellParams: []
  - x: 2
    y: 7
    cellType: 1
    aboveCellDataToSave:
      cellIndex: {x: 2, y: 7}
      aboveCellParams: []
  - x: 3
    y: 7
    cellType: 3
    aboveCellDataToSave:
      cellIndex: {x: 3, y: 7}
      aboveCellParams: []
  - x: 6
    y: 2
    cellType: 14
    aboveCellDataToSave:
      cellIndex: {x: 6, y: 2}
      aboveCellParams:
      - key: directionX
        value: 0
      - key: directionY
        value: -1
      - key: delayShoot
        value: 1
      - key: speedShoot
        value: 5
      - key: shootRange
        value: 10
  - x: 6
    y: 0
    cellType: 1
    aboveCellDataToSave:
      cellIndex: {x: 6, y: 0}
      aboveCellParams: []
  - x: 7
    y: 0
    cellType: 6
    aboveCellDataToSave:
      cellIndex: {x: 7, y: 0}
      aboveCellParams:
      - key: timeDestroyed
        value: 1
  - x: 8
    y: 0
    cellType: 2
    aboveCellDataToSave:
      cellIndex: {x: 8, y: 0}
      aboveCellParams:
      - key: startDelay
        value: 0
      - key: frequency
        value: 1
  - x: 8
    y: 1
    cellType: 3
    aboveCellDataToSave:
      cellIndex: {x: 8, y: 1}
      aboveCellParams: []
  cellFloorDatas: []
