%YAML 1.1
%TAG !u! tag:unity3d.com,2011:
--- !u!1 &6162050435836735233
GameObject:
  m_ObjectHideFlags: 0
  m_CorrespondingSourceObject: {fileID: 0}
  m_PrefabInstance: {fileID: 0}
  m_PrefabAsset: {fileID: 0}
  serializedVersion: 6
  m_Component:
  - component: {fileID: 3845814486749478554}
  - component: {fileID: 2823960597821731891}
  - component: {fileID: 7588780248195515635}
  - component: {fileID: 2191576707077232693}
  - component: {fileID: 4359258592975224760}
  m_Layer: 0
  m_Name: WallPushing
  m_TagString: Untagged
  m_Icon: {fileID: 0}
  m_NavMeshLayer: 0
  m_StaticEditorFlags: 0
  m_IsActive: 1
--- !u!4 &3845814486749478554
Transform:
  m_ObjectHideFlags: 0
  m_CorrespondingSourceObject: {fileID: 0}
  m_PrefabInstance: {fileID: 0}
  m_PrefabAsset: {fileID: 0}
  m_GameObject: {fileID: 6162050435836735233}
  m_LocalRotation: {x: 0, y: -0.7071068, z: 0, w: 0.7071068}
  m_LocalPosition: {x: 0, y: 0, z: 2.1}
  m_LocalScale: {x: 0.3, y: 0.9, z: 0.9}
  m_Children: []
  m_Father: {fileID: 6232154418909836671}
  m_RootOrder: 0
  m_LocalEulerAnglesHint: {x: 0, y: -90, z: 0}
--- !u!33 &2823960597821731891
MeshFilter:
  m_ObjectHideFlags: 0
  m_CorrespondingSourceObject: {fileID: 0}
  m_PrefabInstance: {fileID: 0}
  m_PrefabAsset: {fileID: 0}
  m_GameObject: {fileID: 6162050435836735233}
  m_Mesh: {fileID: 10202, guid: 0000000000000000e000000000000000, type: 0}
--- !u!23 &7588780248195515635
MeshRenderer:
  m_ObjectHideFlags: 0
  m_CorrespondingSourceObject: {fileID: 0}
  m_PrefabInstance: {fileID: 0}
  m_PrefabAsset: {fileID: 0}
  m_GameObject: {fileID: 6162050435836735233}
  m_Enabled: 0
  m_CastShadows: 1
  m_ReceiveShadows: 1
  m_DynamicOccludee: 1
  m_MotionVectors: 1
  m_LightProbeUsage: 1
  m_ReflectionProbeUsage: 1
  m_RayTracingMode: 2
  m_RayTraceProcedural: 0
  m_RenderingLayerMask: 1
  m_RendererPriority: 0
  m_Materials:
  - {fileID: 2100000, guid: 7937d01bb211f6d4aa2621d43dcbad9d, type: 2}
  m_StaticBatchInfo:
    firstSubMesh: 0
    subMeshCount: 0
  m_StaticBatchRoot: {fileID: 0}
  m_ProbeAnchor: {fileID: 0}
  m_LightProbeVolumeOverride: {fileID: 0}
  m_ScaleInLightmap: 1
  m_ReceiveGI: 1
  m_PreserveUVs: 0
  m_IgnoreNormalsForChartDetection: 0
  m_ImportantGI: 0
  m_StitchLightmapSeams: 1
  m_SelectedEditorRenderState: 3
  m_MinimumChartSize: 4
  m_AutoUVMaxDistance: 0.5
  m_AutoUVMaxAngle: 89
  m_LightmapParameters: {fileID: 0}
  m_SortingLayerID: 0
  m_SortingLayer: 0
  m_SortingOrder: 0
  m_AdditionalVertexStreams: {fileID: 0}
--- !u!65 &2191576707077232693
BoxCollider:
  m_ObjectHideFlags: 0
  m_CorrespondingSourceObject: {fileID: 0}
  m_PrefabInstance: {fileID: 0}
  m_PrefabAsset: {fileID: 0}
  m_GameObject: {fileID: 6162050435836735233}
  m_Material: {fileID: 0}
  m_IsTrigger: 0
  m_Enabled: 1
  serializedVersion: 2
  m_Size: {x: 0.5, y: 0.5, z: 0.5}
  m_Center: {x: 0, y: 0, z: 0}
--- !u!114 &4359258592975224760
MonoBehaviour:
  m_ObjectHideFlags: 0
  m_CorrespondingSourceObject: {fileID: 0}
  m_PrefabInstance: {fileID: 0}
  m_PrefabAsset: {fileID: 0}
  m_GameObject: {fileID: 6162050435836735233}
  m_Enabled: 1
  m_EditorHideFlags: 0
  m_Script: {fileID: 11500000, guid: 22f7ae4f11b09e64b9027e532c9e4c23, type: 3}
  m_Name: 
  m_EditorClassIdentifier: 
  myCollider: {fileID: 2191576707077232693}
  isAutoDamage: 0
--- !u!1 &6232154418909836670
GameObject:
  m_ObjectHideFlags: 0
  m_CorrespondingSourceObject: {fileID: 0}
  m_PrefabInstance: {fileID: 0}
  m_PrefabAsset: {fileID: 0}
  serializedVersion: 6
  m_Component:
  - component: {fileID: 6232154418909836671}
  - component: {fileID: 8787266939207994707}
  m_Layer: 0
  m_Name: WallPushing
  m_TagString: Untagged
  m_Icon: {fileID: 0}
  m_NavMeshLayer: 0
  m_StaticEditorFlags: 0
  m_IsActive: 1
--- !u!4 &6232154418909836671
Transform:
  m_ObjectHideFlags: 0
  m_CorrespondingSourceObject: {fileID: 0}
  m_PrefabInstance: {fileID: 0}
  m_PrefabAsset: {fileID: 0}
  m_GameObject: {fileID: 6232154418909836670}
  m_LocalRotation: {x: 0, y: 0, z: 0, w: 1}
  m_LocalPosition: {x: 5.5717196, y: -11.715005, z: 3.398807}
  m_LocalScale: {x: 1, y: 1, z: 1}
  m_Children:
  - {fileID: 3845814486749478554}
  - {fileID: 5261372435806521118}
  m_Father: {fileID: 0}
  m_RootOrder: 0
  m_LocalEulerAnglesHint: {x: 0, y: 0, z: 0}
--- !u!114 &8787266939207994707
MonoBehaviour:
  m_ObjectHideFlags: 0
  m_CorrespondingSourceObject: {fileID: 0}
  m_PrefabInstance: {fileID: 0}
  m_PrefabAsset: {fileID: 0}
  m_GameObject: {fileID: 6232154418909836670}
  m_Enabled: 1
  m_EditorHideFlags: 0
  m_Script: {fileID: 11500000, guid: 3879a0cbf3109864f94dd7e524483667, type: 3}
  m_Name: 
  m_EditorClassIdentifier: 
  colliderPlayerDetected: {fileID: 4359258592975224760}
  wallPushungPlayerDetected: {fileID: 4359258592975224760}
  mySkinnedMeshRenderer: {fileID: 325225520159684839}
--- !u!1001 &5660636774825386229
PrefabInstance:
  m_ObjectHideFlags: 0
  serializedVersion: 2
  m_Modification:
    m_TransformParent: {fileID: 6232154418909836671}
    m_Modifications:
    - target: {fileID: -8679921383154817045, guid: 285641f097967674483cda4fc80d3b84,
        type: 3}
      propertyPath: m_RootOrder
      value: 1
      objectReference: {fileID: 0}
    - target: {fileID: -8679921383154817045, guid: 285641f097967674483cda4fc80d3b84,
        type: 3}
      propertyPath: m_LocalPosition.x
      value: -0
      objectReference: {fileID: 0}
    - target: {fileID: -8679921383154817045, guid: 285641f097967674483cda4fc80d3b84,
        type: 3}
      propertyPath: m_LocalPosition.y
      value: -0.5
      objectReference: {fileID: 0}
    - target: {fileID: -8679921383154817045, guid: 285641f097967674483cda4fc80d3b84,
        type: 3}
      propertyPath: m_LocalPosition.z
      value: 0
      objectReference: {fileID: 0}
    - target: {fileID: -8679921383154817045, guid: 285641f097967674483cda4fc80d3b84,
        type: 3}
      propertyPath: m_LocalRotation.w
      value: 0.5
      objectReference: {fileID: 0}
    - target: {fileID: -8679921383154817045, guid: 285641f097967674483cda4fc80d3b84,
        type: 3}
      propertyPath: m_LocalRotation.x
      value: -0.5
      objectReference: {fileID: 0}
    - target: {fileID: -8679921383154817045, guid: 285641f097967674483cda4fc80d3b84,
        type: 3}
      propertyPath: m_LocalRotation.y
      value: 0.5
      objectReference: {fileID: 0}
    - target: {fileID: -8679921383154817045, guid: 285641f097967674483cda4fc80d3b84,
        type: 3}
      propertyPath: m_LocalRotation.z
      value: 0.5
      objectReference: {fileID: 0}
    - target: {fileID: -8679921383154817045, guid: 285641f097967674483cda4fc80d3b84,
        type: 3}
      propertyPath: m_LocalEulerAnglesHint.x
      value: -90
      objectReference: {fileID: 0}
    - target: {fileID: -8679921383154817045, guid: 285641f097967674483cda4fc80d3b84,
        type: 3}
      propertyPath: m_LocalEulerAnglesHint.y
      value: 0
      objectReference: {fileID: 0}
    - target: {fileID: -8679921383154817045, guid: 285641f097967674483cda4fc80d3b84,
        type: 3}
      propertyPath: m_LocalEulerAnglesHint.z
      value: 90
      objectReference: {fileID: 0}
    - target: {fileID: -3887185075125053422, guid: 285641f097967674483cda4fc80d3b84,
        type: 3}
      propertyPath: m_Materials.Array.data[0]
      value: 
      objectReference: {fileID: 2100000, guid: 9d3de7e42aaa0734aaeac1c1f7cd5d87, type: 2}
    - target: {fileID: -3887185075125053422, guid: 285641f097967674483cda4fc80d3b84,
        type: 3}
      propertyPath: m_BlendShapeWeights.Array.size
      value: 2
      objectReference: {fileID: 0}
    - target: {fileID: -3887185075125053422, guid: 285641f097967674483cda4fc80d3b84,
        type: 3}
      propertyPath: m_BlendShapeWeights.Array.data[0]
      value: 0
      objectReference: {fileID: 0}
    - target: {fileID: -3887185075125053422, guid: 285641f097967674483cda4fc80d3b84,
        type: 3}
      propertyPath: m_BlendShapeWeights.Array.data[1]
      value: 0
      objectReference: {fileID: 0}
    - target: {fileID: 919132149155446097, guid: 285641f097967674483cda4fc80d3b84,
        type: 3}
      propertyPath: m_Name
      value: Push_cube
      objectReference: {fileID: 0}
    m_RemovedComponents: []
  m_SourcePrefab: {fileID: 100100000, guid: 285641f097967674483cda4fc80d3b84, type: 3}
--- !u!4 &5261372435806521118 stripped
Transform:
  m_CorrespondingSourceObject: {fileID: -8679921383154817045, guid: 285641f097967674483cda4fc80d3b84,
    type: 3}
  m_PrefabInstance: {fileID: 5660636774825386229}
  m_PrefabAsset: {fileID: 0}
--- !u!137 &325225520159684839 stripped
SkinnedMeshRenderer:
  m_CorrespondingSourceObject: {fileID: -3887185075125053422, guid: 285641f097967674483cda4fc80d3b84,
    type: 3}
  m_PrefabInstance: {fileID: 5660636774825386229}
  m_PrefabAsset: {fileID: 0}
