%YAML 1.1
%TAG !u! tag:unity3d.com,2011:
--- !u!114 &11400000
MonoBehaviour:
  m_ObjectHideFlags: 0
  m_CorrespondingSourceObject: {fileID: 0}
  m_PrefabInstance: {fileID: 0}
  m_PrefabAsset: {fileID: 0}
  m_GameObject: {fileID: 0}
  m_Enabled: 1
  m_EditorHideFlags: 0
  m_Script: {fileID: 11500000, guid: db950840eb60dea47a6d22851b446704, type: 3}
  m_Name: CommonDataSetsInstaller
  m_EditorClassIdentifier: 
  sequenceLevelsDataSet: {fileID: 11400000, guid: c73fe684892402c4cad7c561fc3c31a6,
    type: 2}
  prefabsDataSet: {fileID: 11400000, guid: 9716368aa849ced498846c597a12d46d, type: 2}
